%YAML 1.1
%TAG !u! tag:unity3d.com,2011:
--- !u!114 &11400000
MonoBehaviour:
  m_ObjectHideFlags: 0
  m_CorrespondingSourceObject: {fileID: 0}
  m_PrefabInstance: {fileID: 0}
  m_PrefabAsset: {fileID: 0}
  m_GameObject: {fileID: 0}
  m_Enabled: 1
  m_EditorHideFlags: 0
  m_Script: {fileID: 11500000, guid: 3e5b25dcb36f80b45b7ac557afdf5734, type: 3}
  m_Name: Portal
  m_EditorClassIdentifier: 
  stability: 50
  naturalDestablizePerSecond: 0.6
  oreImpactDestabilize: 10
  tearDestabilizePerSecond: 0.5
