%YAML 1.1
%TAG !u! tag:unity3d.com,2011:
--- !u!114 &11400000
MonoBehaviour:
  m_ObjectHideFlags: 0
  m_CorrespondingSourceObject: {fileID: 0}
  m_PrefabInstance: {fileID: 0}
  m_PrefabAsset: {fileID: 0}
  m_GameObject: {fileID: 0}
  m_Enabled: 1
  m_EditorHideFlags: 0
  m_Script: {fileID: 11500000, guid: 18d30842106ddde4cb36cafc2bf0bba5, type: 3}
  m_Name: Hardness
  m_EditorClassIdentifier: 
  type: 0
  title: 
  description: 
  current: 0
  values: []
  costs: []
