%YAML 1.1
%TAG !u! tag:unity3d.com,2011:
--- !u!114 &11400000
MonoBehaviour:
  m_ObjectHideFlags: 32
  m_CorrespondingSourceObject: {fileID: 0}
  m_PrefabInstance: {fileID: 0}
  m_PrefabAsset: {fileID: 0}
  m_GameObject: {fileID: 0}
  m_Enabled: 1
  m_EditorHideFlags: 0
  m_Script: {fileID: 11500000, guid: 5668f6ebcb08d1647befaa3485bb5474, type: 3}
  m_Name: PlayerResources
  m_EditorClassIdentifier: 
  <resources>k__BackingField:
    iron: 500
    gold: 350
    platinum: 200
  <levelResources>k__BackingField:
    iron: 0
    gold: 0
    platinum: 0
